dprtask - Election Data
…
mean_turnout <- election_data_tidy |>
  group_by(Fecha, codigo_municipio) |>
  summarise(mean_turnout = mean(turnout)
  , .groups = 'drop') 

mean_turnout

# A tibble: 48,737 × 3
   Fecha   codigo_municipio mean_turnout
   <chr>   <glue>                  <dbl>
 1 2008-03 01-04-001                80.3
 2 2008-03 01-04-002                80.4
 3 2008-03 01-04-003                74.0
 4 2008-03 01-04-004                85.0
 5 2008-03 01-04-005                84.5
 6 2008-03 01-04-006                72.9
 7 2008-03 01-04-007                76.6
 8 2008-03 01-04-008                82.8
 9 2008-03 01-04-009                74.1
10 2008-03 01-04-010                85.6
# ℹ 48,727 more rows
…
